\relax 
\bibstyle{plain}
\@writefile{toc}{\contentsline {title}{Approximate Resolution of Non--determinism\unskip \ \ignorespaces  in Probabilistic Java Application\unskip \ \ignorespaces  using Model Checking}{1}}
\@writefile{toc}{\authcount {3}}
\@writefile{toc}{\contentsline {author}{Artur Rataj\unskip {} \and Bozena Wozna\unskip {} \and Andrzej Zbrzezny\unskip {}}{1}}
\@writefile{toc}{\contentsline {section}{\numberline {1}Introduction}{1}}
\newlabel{code:pv}{{1.1}{1}}
\@writefile{lol}{\contentsline {lstlisting}{\numberline {1.1}Parameters and variables.}{1}}
\newlabel{code:run}{{1.2}{2}}
\@writefile{lol}{\contentsline {lstlisting}{\numberline {1.2}A thread's \texttt  {run()} method.}{2}}
